{
  "classifierPath" : "meta::relational::metamodel::Database",
  "content" : {
    "_type" : "relational",
    "filters" : [ ],
    "includedStores" : [ ],
    "joins" : [ {
      "name" : "Currency_IssuingAuthority",
      "operation" : {
        "_type" : "dynaFunc",
        "funcName" : "equal",
        "parameters" : [ {
          "_type" : "column",
          "column" : "issuingAuthorityId",
          "table" : {
            "_type" : "Table",
            "database" : "Model::physicalModel::currencyDatabase",
            "mainTableDb" : "Model::physicalModel::currencyDatabase",
            "schema" : "currencySchema",
            "table" : "Currency"
          },
          "tableAlias" : "Currency"
        }, {
          "_type" : "column",
          "column" : "identifier",
          "table" : {
            "_type" : "Table",
            "database" : "Model::physicalModel::currencyDatabase",
            "mainTableDb" : "Model::physicalModel::currencyDatabase",
            "schema" : "currencySchema",
            "table" : "IssuingAuthority"
          },
          "tableAlias" : "IssuingAuthority"
        } ]
      }
    }, {
      "name" : "IssuingAuthority_Country",
      "operation" : {
        "_type" : "dynaFunc",
        "funcName" : "equal",
        "parameters" : [ {
          "_type" : "column",
          "column" : "identifier",
          "table" : {
            "_type" : "Table",
            "database" : "Model::physicalModel::currencyDatabase",
            "mainTableDb" : "Model::physicalModel::currencyDatabase",
            "schema" : "currencySchema",
            "table" : "IssuingAuthority"
          },
          "tableAlias" : "IssuingAuthority"
        }, {
          "_type" : "column",
          "column" : "identifier",
          "table" : {
            "_type" : "Table",
            "database" : "Model::physicalModel::currencyDatabase",
            "mainTableDb" : "Model::physicalModel::currencyDatabase",
            "schema" : "currencySchema",
            "table" : "Country"
          },
          "tableAlias" : "Country"
        } ]
      }
    }, {
      "name" : "ISsuingAuthority_IssuingEntity",
      "operation" : {
        "_type" : "dynaFunc",
        "funcName" : "equal",
        "parameters" : [ {
          "_type" : "column",
          "column" : "identifier",
          "table" : {
            "_type" : "Table",
            "database" : "Model::physicalModel::currencyDatabase",
            "mainTableDb" : "Model::physicalModel::currencyDatabase",
            "schema" : "currencySchema",
            "table" : "IssuingAuthority"
          },
          "tableAlias" : "IssuingAuthority"
        }, {
          "_type" : "column",
          "column" : "identifier",
          "table" : {
            "_type" : "Table",
            "database" : "Model::physicalModel::currencyDatabase",
            "mainTableDb" : "Model::physicalModel::currencyDatabase",
            "schema" : "currencySchema",
            "table" : "IssuingEntity"
          },
          "tableAlias" : "IssuingEntity"
        } ]
      }
    } ],
    "name" : "currencyDatabase",
    "package" : "Model::physicalModel",
    "schemas" : [ {
      "name" : "currencySchema",
      "tables" : [ {
        "columns" : [ {
          "name" : "finosId",
          "nullable" : false,
          "type" : {
            "_type" : "Varchar",
            "size" : 40
          }
        }, {
          "name" : "isoCode",
          "nullable" : true,
          "type" : {
            "_type" : "Char",
            "size" : 3
          }
        }, {
          "name" : "numericCode",
          "nullable" : true,
          "type" : {
            "_type" : "Integer"
          }
        }, {
          "name" : "description",
          "nullable" : true,
          "type" : {
            "_type" : "Varchar",
            "size" : 250
          }
        }, {
          "name" : "issuingAuthorityId",
          "nullable" : true,
          "type" : {
            "_type" : "Integer"
          }
        }, {
          "name" : "roundingPrecision",
          "nullable" : true,
          "type" : {
            "_type" : "Integer"
          }
        }, {
          "name" : "roundingDirection",
          "nullable" : true,
          "type" : {
            "_type" : "Char",
            "size" : 1
          }
        }, {
          "name" : "status",
          "nullable" : false,
          "type" : {
            "_type" : "Char",
            "size" : 1
          }
        }, {
          "name" : "type",
          "nullable" : false,
          "type" : {
            "_type" : "Char",
            "size" : 3
          }
        } ],
        "name" : "Currency",
        "primaryKey" : [ "finosId" ]
      }, {
        "columns" : [ {
          "name" : "issuingAuthorityType",
          "nullable" : false,
          "type" : {
            "_type" : "Char",
            "size" : 1
          }
        }, {
          "name" : "name",
          "nullable" : false,
          "type" : {
            "_type" : "Varchar",
            "size" : 250
          }
        }, {
          "name" : "identifier",
          "nullable" : false,
          "type" : {
            "_type" : "Integer"
          }
        } ],
        "name" : "IssuingAuthority",
        "primaryKey" : [ "identifier" ]
      }, {
        "columns" : [ {
          "name" : "identifier",
          "nullable" : false,
          "type" : {
            "_type" : "Integer"
          }
        }, {
          "name" : "LEI",
          "nullable" : false,
          "type" : {
            "_type" : "Char",
            "size" : 20
          }
        } ],
        "name" : "IssuingEntity",
        "primaryKey" : [ "identifier" ]
      }, {
        "columns" : [ {
          "name" : "ISOCode",
          "nullable" : false,
          "type" : {
            "_type" : "Char",
            "size" : 2
          }
        }, {
          "name" : "identifier",
          "nullable" : false,
          "type" : {
            "_type" : "Integer"
          }
        } ],
        "name" : "Country",
        "primaryKey" : [ "identifier" ]
      } ],
      "views" : [ ]
    } ]
  }
}