{
  "classifierPath" : "meta::pure::mapping::Mapping",
  "content" : {
    "_type" : "mapping",
    "classMappings" : [ {
      "_type" : "relational",
      "class" : "Model::Currency",
      "distinct" : false,
      "id" : "currency",
      "mainTable" : {
        "_type" : "Table",
        "database" : "Model::physicalModel::currencyDatabase",
        "mainTableDb" : "Model::physicalModel::currencyDatabase",
        "schema" : "currencySchema",
        "table" : "Currency"
      },
      "primaryKey" : [ {
        "_type" : "column",
        "column" : "finosId",
        "table" : {
          "_type" : "Table",
          "database" : "Model::physicalModel::currencyDatabase",
          "mainTableDb" : "Model::physicalModel::currencyDatabase",
          "schema" : "currencySchema",
          "table" : "Currency"
        },
        "tableAlias" : "Currency"
      } ],
      "propertyMappings" : [ {
        "_type" : "relationalPropertyMapping",
        "property" : {
          "class" : "Model::Currency",
          "property" : "finosId"
        },
        "relationalOperation" : {
          "_type" : "column",
          "column" : "finosId",
          "table" : {
            "_type" : "Table",
            "database" : "Model::physicalModel::currencyDatabase",
            "mainTableDb" : "Model::physicalModel::currencyDatabase",
            "schema" : "currencySchema",
            "table" : "Currency"
          },
          "tableAlias" : "Currency"
        }
      }, {
        "_type" : "relationalPropertyMapping",
        "property" : {
          "class" : "Model::Currency",
          "property" : "isoCode"
        },
        "relationalOperation" : {
          "_type" : "column",
          "column" : "isoCode",
          "table" : {
            "_type" : "Table",
            "database" : "Model::physicalModel::currencyDatabase",
            "mainTableDb" : "Model::physicalModel::currencyDatabase",
            "schema" : "currencySchema",
            "table" : "Currency"
          },
          "tableAlias" : "Currency"
        }
      }, {
        "_type" : "relationalPropertyMapping",
        "property" : {
          "class" : "Model::Currency",
          "property" : "numericIsoCode"
        },
        "relationalOperation" : {
          "_type" : "column",
          "column" : "numericCode",
          "table" : {
            "_type" : "Table",
            "database" : "Model::physicalModel::currencyDatabase",
            "mainTableDb" : "Model::physicalModel::currencyDatabase",
            "schema" : "currencySchema",
            "table" : "Currency"
          },
          "tableAlias" : "Currency"
        }
      }, {
        "_type" : "relationalPropertyMapping",
        "property" : {
          "class" : "Model::Currency",
          "property" : "description"
        },
        "relationalOperation" : {
          "_type" : "column",
          "column" : "description",
          "table" : {
            "_type" : "Table",
            "database" : "Model::physicalModel::currencyDatabase",
            "mainTableDb" : "Model::physicalModel::currencyDatabase",
            "schema" : "currencySchema",
            "table" : "Currency"
          },
          "tableAlias" : "Currency"
        }
      }, {
        "_type" : "relationalPropertyMapping",
        "property" : {
          "class" : "Model::Currency",
          "property" : "isDeliverable"
        },
        "relationalOperation" : {
          "_type" : "literal",
          "value" : "true"
        }
      }, {
        "_type" : "relationalPropertyMapping",
        "property" : {
          "class" : "Model::Currency",
          "property" : "isOffShore"
        },
        "relationalOperation" : {
          "_type" : "literal",
          "value" : "false"
        }
      }, {
        "_type" : "relationalPropertyMapping",
        "enumMappingId" : "Model_StatusEnumeration",
        "property" : {
          "class" : "Model::Currency",
          "property" : "status"
        },
        "relationalOperation" : {
          "_type" : "column",
          "column" : "status",
          "table" : {
            "_type" : "Table",
            "database" : "Model::physicalModel::currencyDatabase",
            "mainTableDb" : "Model::physicalModel::currencyDatabase",
            "schema" : "currencySchema",
            "table" : "Currency"
          },
          "tableAlias" : "Currency"
        }
      }, {
        "_type" : "relationalPropertyMapping",
        "enumMappingId" : "Model_IssuanceTypeEnumeration",
        "property" : {
          "class" : "Model::Currency",
          "property" : "type"
        },
        "relationalOperation" : {
          "_type" : "column",
          "column" : "type",
          "table" : {
            "_type" : "Table",
            "database" : "Model::physicalModel::currencyDatabase",
            "mainTableDb" : "Model::physicalModel::currencyDatabase",
            "schema" : "currencySchema",
            "table" : "Currency"
          },
          "tableAlias" : "Currency"
        }
      }, {
        "_type" : "relationalPropertyMapping",
        "property" : {
          "class" : "Model::Currency",
          "property" : "issuingAuthority"
        },
        "relationalOperation" : {
          "_type" : "elemtWithJoins",
          "joins" : [ {
            "db" : "Model::physicalModel::currencyDatabase",
            "name" : "Currency_IssuingAuthority"
          } ]
        },
        "target" : "issuingAuthority"
      } ],
      "root" : true
    }, {
      "_type" : "relational",
      "class" : "Model::Rounding",
      "distinct" : false,
      "id" : "rounding",
      "mainTable" : {
        "_type" : "Table",
        "database" : "Model::physicalModel::currencyDatabase",
        "mainTableDb" : "Model::physicalModel::currencyDatabase",
        "schema" : "currencySchema",
        "table" : "Currency"
      },
      "primaryKey" : [ {
        "_type" : "column",
        "column" : "finosId",
        "table" : {
          "_type" : "Table",
          "database" : "Model::physicalModel::currencyDatabase",
          "mainTableDb" : "Model::physicalModel::currencyDatabase",
          "schema" : "currencySchema",
          "table" : "Currency"
        },
        "tableAlias" : "Currency"
      } ],
      "propertyMappings" : [ {
        "_type" : "relationalPropertyMapping",
        "property" : {
          "class" : "Model::Rounding",
          "property" : "precision"
        },
        "relationalOperation" : {
          "_type" : "column",
          "column" : "roundingPrecision",
          "table" : {
            "_type" : "Table",
            "database" : "Model::physicalModel::currencyDatabase",
            "mainTableDb" : "Model::physicalModel::currencyDatabase",
            "schema" : "currencySchema",
            "table" : "Currency"
          },
          "tableAlias" : "Currency"
        }
      } ],
      "root" : true
    }, {
      "_type" : "relational",
      "class" : "Model::Country",
      "distinct" : false,
      "id" : "country",
      "mainTable" : {
        "_type" : "Table",
        "database" : "Model::physicalModel::currencyDatabase",
        "mainTableDb" : "Model::physicalModel::currencyDatabase",
        "schema" : "currencySchema",
        "table" : "IssuingAuthority"
      },
      "primaryKey" : [ {
        "_type" : "column",
        "column" : "identifier",
        "table" : {
          "_type" : "Table",
          "database" : "Model::physicalModel::currencyDatabase",
          "mainTableDb" : "Model::physicalModel::currencyDatabase",
          "schema" : "currencySchema",
          "table" : "IssuingAuthority"
        },
        "tableAlias" : "IssuingAuthority"
      } ],
      "propertyMappings" : [ {
        "_type" : "relationalPropertyMapping",
        "property" : {
          "class" : "Model::Country",
          "property" : "countryName"
        },
        "relationalOperation" : {
          "_type" : "column",
          "column" : "name",
          "table" : {
            "_type" : "Table",
            "database" : "Model::physicalModel::currencyDatabase",
            "mainTableDb" : "Model::physicalModel::currencyDatabase",
            "schema" : "currencySchema",
            "table" : "IssuingAuthority"
          },
          "tableAlias" : "IssuingAuthority"
        }
      }, {
        "_type" : "relationalPropertyMapping",
        "property" : {
          "class" : "Model::Country",
          "property" : "issuingAuthorityName"
        },
        "relationalOperation" : {
          "_type" : "column",
          "column" : "name",
          "table" : {
            "_type" : "Table",
            "database" : "Model::physicalModel::currencyDatabase",
            "mainTableDb" : "Model::physicalModel::currencyDatabase",
            "schema" : "currencySchema",
            "table" : "IssuingAuthority"
          },
          "tableAlias" : "IssuingAuthority"
        }
      }, {
        "_type" : "relationalPropertyMapping",
        "property" : {
          "class" : "Model::Country",
          "property" : "countryIsoCode"
        },
        "relationalOperation" : {
          "_type" : "elemtWithJoins",
          "joins" : [ {
            "db" : "Model::physicalModel::currencyDatabase",
            "name" : "IssuingAuthority_Country"
          } ],
          "relationalElement" : {
            "_type" : "column",
            "column" : "ISOCode",
            "table" : {
              "_type" : "Table",
              "database" : "Model::physicalModel::currencyDatabase",
              "mainTableDb" : "Model::physicalModel::currencyDatabase",
              "schema" : "currencySchema",
              "table" : "Country"
            },
            "tableAlias" : "Country"
          }
        }
      }, {
        "_type" : "relationalPropertyMapping",
        "enumMappingId" : "Model_IssuingAuthorityType",
        "property" : {
          "class" : "Model::Country",
          "property" : "issuingAuthorityType"
        },
        "relationalOperation" : {
          "_type" : "column",
          "column" : "issuingAuthorityType",
          "table" : {
            "_type" : "Table",
            "database" : "Model::physicalModel::currencyDatabase",
            "mainTableDb" : "Model::physicalModel::currencyDatabase",
            "schema" : "currencySchema",
            "table" : "IssuingAuthority"
          },
          "tableAlias" : "IssuingAuthority"
        }
      } ],
      "root" : false
    }, {
      "_type" : "relational",
      "class" : "Model::LegalEntity",
      "distinct" : false,
      "id" : "legalEntity",
      "mainTable" : {
        "_type" : "Table",
        "database" : "Model::physicalModel::currencyDatabase",
        "mainTableDb" : "Model::physicalModel::currencyDatabase",
        "schema" : "currencySchema",
        "table" : "IssuingAuthority"
      },
      "primaryKey" : [ {
        "_type" : "column",
        "column" : "identifier",
        "table" : {
          "_type" : "Table",
          "database" : "Model::physicalModel::currencyDatabase",
          "mainTableDb" : "Model::physicalModel::currencyDatabase",
          "schema" : "currencySchema",
          "table" : "IssuingAuthority"
        },
        "tableAlias" : "IssuingAuthority"
      } ],
      "propertyMappings" : [ {
        "_type" : "relationalPropertyMapping",
        "property" : {
          "class" : "Model::LegalEntity",
          "property" : "issuingAuthorityName"
        },
        "relationalOperation" : {
          "_type" : "column",
          "column" : "name",
          "table" : {
            "_type" : "Table",
            "database" : "Model::physicalModel::currencyDatabase",
            "mainTableDb" : "Model::physicalModel::currencyDatabase",
            "schema" : "currencySchema",
            "table" : "IssuingAuthority"
          },
          "tableAlias" : "IssuingAuthority"
        }
      }, {
        "_type" : "relationalPropertyMapping",
        "property" : {
          "class" : "Model::LegalEntity",
          "property" : "LEI"
        },
        "relationalOperation" : {
          "_type" : "elemtWithJoins",
          "joins" : [ {
            "db" : "Model::physicalModel::currencyDatabase",
            "name" : "ISsuingAuthority_IssuingEntity"
          } ],
          "relationalElement" : {
            "_type" : "column",
            "column" : "LEI",
            "table" : {
              "_type" : "Table",
              "database" : "Model::physicalModel::currencyDatabase",
              "mainTableDb" : "Model::physicalModel::currencyDatabase",
              "schema" : "currencySchema",
              "table" : "IssuingEntity"
            },
            "tableAlias" : "IssuingEntity"
          }
        }
      }, {
        "_type" : "relationalPropertyMapping",
        "enumMappingId" : "Model_IssuingAuthorityType",
        "property" : {
          "class" : "Model::LegalEntity",
          "property" : "issuingAuthorityType"
        },
        "relationalOperation" : {
          "_type" : "column",
          "column" : "issuingAuthorityType",
          "table" : {
            "_type" : "Table",
            "database" : "Model::physicalModel::currencyDatabase",
            "mainTableDb" : "Model::physicalModel::currencyDatabase",
            "schema" : "currencySchema",
            "table" : "IssuingAuthority"
          },
          "tableAlias" : "IssuingAuthority"
        }
      } ],
      "root" : true
    }, {
      "_type" : "relational",
      "class" : "Model::TreatyOrganisation",
      "distinct" : false,
      "id" : "treatyOrganisation",
      "mainTable" : {
        "_type" : "Table",
        "database" : "Model::physicalModel::currencyDatabase",
        "mainTableDb" : "Model::physicalModel::currencyDatabase",
        "schema" : "currencySchema",
        "table" : "IssuingAuthority"
      },
      "primaryKey" : [ {
        "_type" : "column",
        "column" : "identifier",
        "table" : {
          "_type" : "Table",
          "database" : "Model::physicalModel::currencyDatabase",
          "mainTableDb" : "Model::physicalModel::currencyDatabase",
          "schema" : "currencySchema",
          "table" : "IssuingAuthority"
        },
        "tableAlias" : "IssuingAuthority"
      } ],
      "propertyMappings" : [ {
        "_type" : "relationalPropertyMapping",
        "property" : {
          "class" : "Model::TreatyOrganisation",
          "property" : "issuingAuthorityName"
        },
        "relationalOperation" : {
          "_type" : "column",
          "column" : "name",
          "table" : {
            "_type" : "Table",
            "database" : "Model::physicalModel::currencyDatabase",
            "mainTableDb" : "Model::physicalModel::currencyDatabase",
            "schema" : "currencySchema",
            "table" : "IssuingAuthority"
          },
          "tableAlias" : "IssuingAuthority"
        }
      }, {
        "_type" : "relationalPropertyMapping",
        "property" : {
          "class" : "Model::TreatyOrganisation",
          "property" : "name"
        },
        "relationalOperation" : {
          "_type" : "column",
          "column" : "name",
          "table" : {
            "_type" : "Table",
            "database" : "Model::physicalModel::currencyDatabase",
            "mainTableDb" : "Model::physicalModel::currencyDatabase",
            "schema" : "currencySchema",
            "table" : "IssuingAuthority"
          },
          "tableAlias" : "IssuingAuthority"
        }
      }, {
        "_type" : "relationalPropertyMapping",
        "enumMappingId" : "Model_IssuingAuthorityType",
        "property" : {
          "class" : "Model::TreatyOrganisation",
          "property" : "issuingAuthorityType"
        },
        "relationalOperation" : {
          "_type" : "column",
          "column" : "issuingAuthorityType",
          "table" : {
            "_type" : "Table",
            "database" : "Model::physicalModel::currencyDatabase",
            "mainTableDb" : "Model::physicalModel::currencyDatabase",
            "schema" : "currencySchema",
            "table" : "IssuingAuthority"
          },
          "tableAlias" : "IssuingAuthority"
        }
      } ],
      "root" : true
    }, {
      "_type" : "relational",
      "class" : "Model::IssuingAuthority",
      "distinct" : false,
      "id" : "issuingAuthority",
      "mainTable" : {
        "_type" : "Table",
        "database" : "Model::physicalModel::currencyDatabase",
        "mainTableDb" : "Model::physicalModel::currencyDatabase",
        "schema" : "currencySchema",
        "table" : "IssuingAuthority"
      },
      "primaryKey" : [ {
        "_type" : "column",
        "column" : "identifier",
        "table" : {
          "_type" : "Table",
          "database" : "Model::physicalModel::currencyDatabase",
          "mainTableDb" : "Model::physicalModel::currencyDatabase",
          "schema" : "currencySchema",
          "table" : "IssuingAuthority"
        },
        "tableAlias" : "IssuingAuthority"
      } ],
      "propertyMappings" : [ {
        "_type" : "relationalPropertyMapping",
        "property" : {
          "class" : "Model::IssuingAuthority",
          "property" : "issuingAuthorityName"
        },
        "relationalOperation" : {
          "_type" : "column",
          "column" : "name",
          "table" : {
            "_type" : "Table",
            "database" : "Model::physicalModel::currencyDatabase",
            "mainTableDb" : "Model::physicalModel::currencyDatabase",
            "schema" : "currencySchema",
            "table" : "IssuingAuthority"
          },
          "tableAlias" : "IssuingAuthority"
        }
      }, {
        "_type" : "relationalPropertyMapping",
        "enumMappingId" : "Model_IssuingAuthorityType",
        "property" : {
          "class" : "Model::IssuingAuthority",
          "property" : "issuingAuthorityType"
        },
        "relationalOperation" : {
          "_type" : "column",
          "column" : "issuingAuthorityType",
          "table" : {
            "_type" : "Table",
            "database" : "Model::physicalModel::currencyDatabase",
            "mainTableDb" : "Model::physicalModel::currencyDatabase",
            "schema" : "currencySchema",
            "table" : "IssuingAuthority"
          },
          "tableAlias" : "IssuingAuthority"
        }
      } ],
      "root" : true
    } ],
    "enumerationMappings" : [ {
      "enumValueMappings" : [ {
        "enumValue" : "Up",
        "sourceValues" : [ {
          "_type" : "stringSourceValue",
          "value" : "U"
        } ]
      }, {
        "enumValue" : "Down",
        "sourceValues" : [ {
          "_type" : "stringSourceValue",
          "value" : "D"
        } ]
      }, {
        "enumValue" : "Nearest",
        "sourceValues" : [ {
          "_type" : "stringSourceValue",
          "value" : "N"
        } ]
      } ],
      "enumeration" : "Model::RoundingDirectionEnumeration"
    }, {
      "enumValueMappings" : [ {
        "enumValue" : "Active",
        "sourceValues" : [ {
          "_type" : "stringSourceValue",
          "value" : "A"
        } ]
      }, {
        "enumValue" : "Inactive",
        "sourceValues" : [ {
          "_type" : "stringSourceValue",
          "value" : "I"
        } ]
      } ],
      "enumeration" : "Model::StatusEnumeration"
    }, {
      "enumValueMappings" : [ {
        "enumValue" : "Currency",
        "sourceValues" : [ {
          "_type" : "stringSourceValue",
          "value" : "Ccy"
        } ]
      }, {
        "enumValue" : "Commodity",
        "sourceValues" : [ {
          "_type" : "stringSourceValue",
          "value" : "Com"
        } ]
      }, {
        "enumValue" : "Crypto",
        "sourceValues" : [ {
          "_type" : "stringSourceValue",
          "value" : "Cry"
        } ]
      }, {
        "enumValue" : "Fund",
        "sourceValues" : [ {
          "_type" : "stringSourceValue",
          "value" : "Fun"
        } ]
      } ],
      "enumeration" : "Model::IssuanceTypeEnumeration"
    }, {
      "enumValueMappings" : [ {
        "enumValue" : "Country",
        "sourceValues" : [ {
          "_type" : "stringSourceValue",
          "value" : "C"
        } ]
      }, {
        "enumValue" : "LegalEntity",
        "sourceValues" : [ {
          "_type" : "stringSourceValue",
          "value" : "L"
        } ]
      }, {
        "enumValue" : "TreatyOrganisation",
        "sourceValues" : [ {
          "_type" : "stringSourceValue",
          "value" : "T"
        } ]
      } ],
      "enumeration" : "Model::IssuingAuthorityType"
    } ],
    "includedMappings" : [ ],
    "name" : "physicalMapping",
    "package" : "Model::physicalModel",
    "tests" : [ {
      "assert" : {
        "_type" : "expectedOutputMappingTestAssert",
        "expectedOutput" : "{\"columns\":[\"Country Iso Code\",\"Country Name\",\"Issuing Authority Name\"],\"rows\":[{\"values\":[\"AD\",\"Andorra\",\"Andorra\"]}]}"
      },
      "inputData" : [ {
        "_type" : "relational",
        "data" : "Drop schema if exists currencySchema cascade;\nCreate schema currencySchema ;\nCreate Table currencySchema.Country(  ISOCode CHAR(2) , identifier int PRIMARY KEY);\nCreate Table currencySchema.IssuingAuthority (issuingAuthorityType CHAR(1), name VARCHAR(250), identifier int PRIMARY KEY);\ninsert into currencySchema.Country (ISOCode, identifier) values ('AD',1);\ninsert into currencySchema.IssuingAuthority(issuingAuthorityType,name,identifier) values ('C','Andorra',1);\n",
        "database" : "Model::physicalModel::currencyDatabase",
        "inputType" : "SQL"
      } ],
      "name" : "testCountry",
      "query" : {
        "_type" : "lambda",
        "body" : [ {
          "_type" : "func",
          "function" : "project",
          "parameters" : [ {
            "_type" : "func",
            "function" : "getAll",
            "parameters" : [ {
              "_type" : "packageableElementPtr",
              "fullPath" : "Model::Country"
            } ]
          }, {
            "_type" : "collection",
            "multiplicity" : {
              "lowerBound" : 3,
              "upperBound" : 3
            },
            "values" : [ {
              "_type" : "lambda",
              "body" : [ {
                "_type" : "property",
                "parameters" : [ {
                  "_type" : "var",
                  "name" : "x"
                } ],
                "property" : "countryIsoCode"
              } ],
              "parameters" : [ {
                "_type" : "var",
                "name" : "x"
              } ]
            }, {
              "_type" : "lambda",
              "body" : [ {
                "_type" : "property",
                "parameters" : [ {
                  "_type" : "var",
                  "name" : "x"
                } ],
                "property" : "countryName"
              } ],
              "parameters" : [ {
                "_type" : "var",
                "name" : "x"
              } ]
            }, {
              "_type" : "lambda",
              "body" : [ {
                "_type" : "property",
                "parameters" : [ {
                  "_type" : "var",
                  "name" : "x"
                } ],
                "property" : "issuingAuthorityName"
              } ],
              "parameters" : [ {
                "_type" : "var",
                "name" : "x"
              } ]
            } ]
          }, {
            "_type" : "collection",
            "multiplicity" : {
              "lowerBound" : 3,
              "upperBound" : 3
            },
            "values" : [ {
              "_type" : "string",
              "multiplicity" : {
                "lowerBound" : 1,
                "upperBound" : 1
              },
              "values" : [ "Country Iso Code" ]
            }, {
              "_type" : "string",
              "multiplicity" : {
                "lowerBound" : 1,
                "upperBound" : 1
              },
              "values" : [ "Country Name" ]
            }, {
              "_type" : "string",
              "multiplicity" : {
                "lowerBound" : 1,
                "upperBound" : 1
              },
              "values" : [ "Issuing Authority Name" ]
            } ]
          } ]
        } ],
        "parameters" : [ ]
      }
    }, {
      "assert" : {
        "_type" : "expectedOutputMappingTestAssert",
        "expectedOutput" : "{\"columns\":[\"Issuing Authority Name\",\"L E I\"],\"rows\":[{\"values\":[\"Central Bank for Curaçao and Sint Maarten\",\"213800LVQN54C5LIXE21\"]}]}"
      },
      "inputData" : [ {
        "_type" : "relational",
        "data" : "drop schema if exists currencySchema cascade;\nCreate schema currencySchema ;\nCreate Table currencySchema.IssuingEntity(  LEI VARCHAR(20) , identifier int PRIMARY KEY);\nCreate Table currencySchema.IssuingAuthority (issuingAuthorityType CHAR(1), name VARCHAR(250), identifier int PRIMARY KEY);\ninsert into currencySchema.IssuingEntity (LEI, identifier) values ('213800LVQN54C5LIXE21',213);\ninsert into currencySchema.IssuingAuthority(issuingAuthorityType,name,identifier) values ('L','Central Bank for Curaçao and Sint Maarten',213);\n",
        "database" : "Model::physicalModel::currencyDatabase",
        "inputType" : "SQL"
      } ],
      "name" : "testEntity",
      "query" : {
        "_type" : "lambda",
        "body" : [ {
          "_type" : "func",
          "function" : "project",
          "parameters" : [ {
            "_type" : "func",
            "function" : "getAll",
            "parameters" : [ {
              "_type" : "packageableElementPtr",
              "fullPath" : "Model::LegalEntity"
            } ]
          }, {
            "_type" : "collection",
            "multiplicity" : {
              "lowerBound" : 2,
              "upperBound" : 2
            },
            "values" : [ {
              "_type" : "lambda",
              "body" : [ {
                "_type" : "property",
                "parameters" : [ {
                  "_type" : "var",
                  "name" : "x"
                } ],
                "property" : "issuingAuthorityName"
              } ],
              "parameters" : [ {
                "_type" : "var",
                "name" : "x"
              } ]
            }, {
              "_type" : "lambda",
              "body" : [ {
                "_type" : "property",
                "parameters" : [ {
                  "_type" : "var",
                  "name" : "x"
                } ],
                "property" : "LEI"
              } ],
              "parameters" : [ {
                "_type" : "var",
                "name" : "x"
              } ]
            } ]
          }, {
            "_type" : "collection",
            "multiplicity" : {
              "lowerBound" : 2,
              "upperBound" : 2
            },
            "values" : [ {
              "_type" : "string",
              "multiplicity" : {
                "lowerBound" : 1,
                "upperBound" : 1
              },
              "values" : [ "Issuing Authority Name" ]
            }, {
              "_type" : "string",
              "multiplicity" : {
                "lowerBound" : 1,
                "upperBound" : 1
              },
              "values" : [ "L E I" ]
            } ]
          } ]
        } ],
        "parameters" : [ ]
      }
    }, {
      "assert" : {
        "_type" : "expectedOutputMappingTestAssert",
        "expectedOutput" : "{\"columns\":[\"Issuing Authority Name\",\"Name\"],\"rows\":[{\"values\":[\"European Union\",\"European Union\"]}]}"
      },
      "inputData" : [ {
        "_type" : "relational",
        "data" : "drop schema if exists currencySchema cascade;\nCreate schema currencySchema ;\nCreate Table currencySchema.IssuingAuthority (issuingAuthorityType CHAR(1), name VARCHAR(250), identifier int PRIMARY KEY);\ninsert into currencySchema.IssuingAuthority(issuingAuthorityType,name,identifier) values ('T','European Union',198);\n",
        "database" : "Model::physicalModel::currencyDatabase",
        "inputType" : "SQL"
      } ],
      "name" : "testTreaty",
      "query" : {
        "_type" : "lambda",
        "body" : [ {
          "_type" : "func",
          "function" : "project",
          "parameters" : [ {
            "_type" : "func",
            "function" : "getAll",
            "parameters" : [ {
              "_type" : "packageableElementPtr",
              "fullPath" : "Model::TreatyOrganisation"
            } ]
          }, {
            "_type" : "collection",
            "multiplicity" : {
              "lowerBound" : 2,
              "upperBound" : 2
            },
            "values" : [ {
              "_type" : "lambda",
              "body" : [ {
                "_type" : "property",
                "parameters" : [ {
                  "_type" : "var",
                  "name" : "x"
                } ],
                "property" : "issuingAuthorityName"
              } ],
              "parameters" : [ {
                "_type" : "var",
                "name" : "x"
              } ]
            }, {
              "_type" : "lambda",
              "body" : [ {
                "_type" : "property",
                "parameters" : [ {
                  "_type" : "var",
                  "name" : "x"
                } ],
                "property" : "name"
              } ],
              "parameters" : [ {
                "_type" : "var",
                "name" : "x"
              } ]
            } ]
          }, {
            "_type" : "collection",
            "multiplicity" : {
              "lowerBound" : 2,
              "upperBound" : 2
            },
            "values" : [ {
              "_type" : "string",
              "multiplicity" : {
                "lowerBound" : 1,
                "upperBound" : 1
              },
              "values" : [ "Issuing Authority Name" ]
            }, {
              "_type" : "string",
              "multiplicity" : {
                "lowerBound" : 1,
                "upperBound" : 1
              },
              "values" : [ "Name" ]
            } ]
          } ]
        } ],
        "parameters" : [ ]
      }
    }, {
      "assert" : {
        "_type" : "expectedOutputMappingTestAssert",
        "expectedOutput" : "{\"columns\":[\"Issuing Authority Name\",\"Type\"],\"rows\":[{\"values\":[\"Andorra\",\"Country\"]},{\"values\":[\"Central Bank for Curaçao and Sint Maarten\",\"LegalEntity\"]},{\"values\":[\"European Union\",\"TreatyOrganisation\"]}]}"
      },
      "inputData" : [ {
        "_type" : "relational",
        "data" : "drop schema if exists currencySchema cascade;\nCreate schema currencySchema ;\nCreate Table currencySchema.Currency (finosId VARCHAR(36) PRIMARY KEY,isoCode CHAR(3),numericCode int,description VARCHAR(250),issuingAuthorityId int,roundingPrecision int,roundingDirection CHAR(1),status CHAR(1),type CHAR(3));\nCreate Table currencySchema.IssuingAuthority (issuingAuthorityType CHAR(1), name VARCHAR(250), identifier int PRIMARY KEY);\ninsert into currencySchema.IssuingAuthority(issuingAuthorityType,name,identifier) values ('T','European Union',198);\ninsert into currencySchema.IssuingAuthority(issuingAuthorityType,name,identifier) values ('L','Central Bank for Curaçao and Sint Maarten',213);\ninsert into currencySchema.IssuingAuthority(issuingAuthorityType,name,identifier) values ('C','Andorra',1);\ninsert into currencySchema.Currency(finosId,isoCode,numericCode,description,issuingAuthorityId,roundingPrecision,roundingDirection,status,type) values ('a04a7410-a76f-11eb-bcbc-0242ac130002','AFN',971,'Afghani',3,2,'D','A','Ccy');\n",
        "database" : "Model::physicalModel::currencyDatabase",
        "inputType" : "SQL"
      } ],
      "name" : "testAuthority",
      "query" : {
        "_type" : "lambda",
        "body" : [ {
          "_type" : "func",
          "function" : "distinct",
          "parameters" : [ {
            "_type" : "func",
            "function" : "project",
            "parameters" : [ {
              "_type" : "func",
              "function" : "getAll",
              "parameters" : [ {
                "_type" : "packageableElementPtr",
                "fullPath" : "Model::IssuingAuthority"
              } ]
            }, {
              "_type" : "collection",
              "multiplicity" : {
                "lowerBound" : 2,
                "upperBound" : 2
              },
              "values" : [ {
                "_type" : "lambda",
                "body" : [ {
                  "_type" : "property",
                  "parameters" : [ {
                    "_type" : "var",
                    "name" : "x"
                  } ],
                  "property" : "issuingAuthorityName"
                } ],
                "parameters" : [ {
                  "_type" : "var",
                  "name" : "x"
                } ]
              }, {
                "_type" : "lambda",
                "body" : [ {
                  "_type" : "property",
                  "parameters" : [ {
                    "_type" : "var",
                    "name" : "x"
                  } ],
                  "property" : "issuingAuthorityType"
                } ],
                "parameters" : [ {
                  "_type" : "var",
                  "name" : "x"
                } ]
              } ]
            }, {
              "_type" : "collection",
              "multiplicity" : {
                "lowerBound" : 2,
                "upperBound" : 2
              },
              "values" : [ {
                "_type" : "string",
                "multiplicity" : {
                  "lowerBound" : 1,
                  "upperBound" : 1
                },
                "values" : [ "Issuing Authority Name" ]
              }, {
                "_type" : "string",
                "multiplicity" : {
                  "lowerBound" : 1,
                  "upperBound" : 1
                },
                "values" : [ "Type" ]
              } ]
            } ]
          } ]
        } ],
        "parameters" : [ ]
      }
    }, {
      "assert" : {
        "_type" : "expectedOutputMappingTestAssert",
        "expectedOutput" : "{\"columns\":[\"Description\",\"Finos Id\",\"Is Deliverable\",\"Iso Code\",\"Is Off Shore\",\"Numeric Iso Code\",\"Status\",\"Type\",\"Issuing Authority/Issuing Authority Type\",\"Issuing Authority/Issuing Authority Name\"],\"rows\":[{\"values\":[\"Afghani\",\"a04a7410-a76f-11eb-bcbc-0242ac130002\",true,\"AFN\",false,971,\"Active\",\"Currency\",\"Country\",\"Afghanistan\"]},{\"values\":[\"Zimbabwe Dollar (new)\",\"a04cbc0c-a76f-11eb-bcbc-0242ac130002\",true,\"ZWN\",false,942,\"Inactive\",\"Currency\",null,null]},{\"values\":[\"Gold\",\"a04cbd7e-a76f-11eb-bcbc-0242ac130002\",true,\"XAU\",false,959,\"Active\",\"Commodity\",null,null]},{\"values\":[\"Colombian daily account unit\",\"a04cbe3c-a76f-11eb-bcbc-0242ac130002\",true,\"COU\",false,null,\"Active\",\"Fund\",\"LegalEntity\",\"Central Bank of Colombia\"]},{\"values\":[\"Bitcoin\",\"a04cbef0-a76f-11eb-bcbc-0242ac130002\",true,\"BTC\",false,null,\"Inactive\",\"Crypto\",null,null]},{\"values\":[\"Euro\",\"a04ac67c-a76f-11eb-bcbc-0242ac130002\",true,\"EUR\",false,978,\"Active\",\"Currency\",\"TreatyOrganisation\",\"European Union\"]}]}"
      },
      "inputData" : [ {
        "_type" : "relational",
        "data" : "drop schema if exists currencySchema cascade;\nCreate schema currencySchema ;\nCreate Table currencySchema.Currency (finosId VARCHAR(36) PRIMARY KEY,isoCode CHAR(3),numericCode int,description VARCHAR(250),issuingAuthorityId int,roundingPrecision int,roundingDirection CHAR(1),status CHAR(1),type CHAR(3));\nCreate Table currencySchema.IssuingAuthority (issuingAuthorityType CHAR(1), name VARCHAR(250), identifier int PRIMARY KEY);\ninsert into currencySchema.Currency(finosId,isoCode,numericCode,description,issuingAuthorityId,roundingPrecision,roundingDirection,status,type) values ('a04a7410-a76f-11eb-bcbc-0242ac130002','AFN',971,'Afghani',3,2,'D','A','Ccy');\ninsert into currencySchema.Currency(finosId,isoCode,numericCode,description,issuingAuthorityId,status,type) values ('a04cbc0c-a76f-11eb-bcbc-0242ac130002','ZWN',942,'Zimbabwe Dollar (new)',194,'I','Ccy');\ninsert into currencySchema.Currency(finosId,isoCode,numericCode,description,status,type) values ('a04cbd7e-a76f-11eb-bcbc-0242ac130002','XAU',959,'Gold','A','Com');\ninsert into currencySchema.Currency(finosId,isoCode,description,status,type,issuingAuthorityId) values ('a04cbe3c-a76f-11eb-bcbc-0242ac130002','COU','Colombian daily account unit','A','Fun',195);\ninsert into currencySchema.Currency(finosId,isoCode,description,status,type) values ('a04cbef0-a76f-11eb-bcbc-0242ac130002','BTC','Bitcoin','I','Cry');\ninsert into currencySchema.Currency(finosId,isoCode,numericCode,description,issuingAuthorityId,roundingPrecision,roundingDirection,status,type) values ('a04ac67c-a76f-11eb-bcbc-0242ac130002','EUR',978,'Euro',191,2,'D','A','Ccy');\ninsert into currencySchema.IssuingAuthority(issuingAuthorityType,name,identifier) values ('T','European Union',191);\ninsert into currencySchema.IssuingAuthority(issuingAuthorityType,name,identifier) values ('L','Central Bank of Colombia',195);\ninsert into currencySchema.IssuingAuthority(issuingAuthorityType,name,identifier) values ('C','Afghanistan',3);\n",
        "database" : "Model::physicalModel::currencyDatabase",
        "inputType" : "SQL"
      } ],
      "name" : "testCurrency",
      "query" : {
        "_type" : "lambda",
        "body" : [ {
          "_type" : "func",
          "function" : "project",
          "parameters" : [ {
            "_type" : "func",
            "function" : "getAll",
            "parameters" : [ {
              "_type" : "packageableElementPtr",
              "fullPath" : "Model::Currency"
            } ]
          }, {
            "_type" : "collection",
            "multiplicity" : {
              "lowerBound" : 10,
              "upperBound" : 10
            },
            "values" : [ {
              "_type" : "lambda",
              "body" : [ {
                "_type" : "property",
                "parameters" : [ {
                  "_type" : "var",
                  "name" : "x"
                } ],
                "property" : "description"
              } ],
              "parameters" : [ {
                "_type" : "var",
                "name" : "x"
              } ]
            }, {
              "_type" : "lambda",
              "body" : [ {
                "_type" : "property",
                "parameters" : [ {
                  "_type" : "var",
                  "name" : "x"
                } ],
                "property" : "finosId"
              } ],
              "parameters" : [ {
                "_type" : "var",
                "name" : "x"
              } ]
            }, {
              "_type" : "lambda",
              "body" : [ {
                "_type" : "property",
                "parameters" : [ {
                  "_type" : "var",
                  "name" : "x"
                } ],
                "property" : "isDeliverable"
              } ],
              "parameters" : [ {
                "_type" : "var",
                "name" : "x"
              } ]
            }, {
              "_type" : "lambda",
              "body" : [ {
                "_type" : "property",
                "parameters" : [ {
                  "_type" : "var",
                  "name" : "x"
                } ],
                "property" : "isoCode"
              } ],
              "parameters" : [ {
                "_type" : "var",
                "name" : "x"
              } ]
            }, {
              "_type" : "lambda",
              "body" : [ {
                "_type" : "property",
                "parameters" : [ {
                  "_type" : "var",
                  "name" : "x"
                } ],
                "property" : "isOffShore"
              } ],
              "parameters" : [ {
                "_type" : "var",
                "name" : "x"
              } ]
            }, {
              "_type" : "lambda",
              "body" : [ {
                "_type" : "property",
                "parameters" : [ {
                  "_type" : "var",
                  "name" : "x"
                } ],
                "property" : "numericIsoCode"
              } ],
              "parameters" : [ {
                "_type" : "var",
                "name" : "x"
              } ]
            }, {
              "_type" : "lambda",
              "body" : [ {
                "_type" : "property",
                "parameters" : [ {
                  "_type" : "var",
                  "name" : "x"
                } ],
                "property" : "status"
              } ],
              "parameters" : [ {
                "_type" : "var",
                "name" : "x"
              } ]
            }, {
              "_type" : "lambda",
              "body" : [ {
                "_type" : "property",
                "parameters" : [ {
                  "_type" : "var",
                  "name" : "x"
                } ],
                "property" : "type"
              } ],
              "parameters" : [ {
                "_type" : "var",
                "name" : "x"
              } ]
            }, {
              "_type" : "lambda",
              "body" : [ {
                "_type" : "property",
                "parameters" : [ {
                  "_type" : "property",
                  "parameters" : [ {
                    "_type" : "var",
                    "name" : "x"
                  } ],
                  "property" : "issuingAuthority"
                } ],
                "property" : "issuingAuthorityType"
              } ],
              "parameters" : [ {
                "_type" : "var",
                "name" : "x"
              } ]
            }, {
              "_type" : "lambda",
              "body" : [ {
                "_type" : "property",
                "parameters" : [ {
                  "_type" : "property",
                  "parameters" : [ {
                    "_type" : "var",
                    "name" : "x"
                  } ],
                  "property" : "issuingAuthority"
                } ],
                "property" : "issuingAuthorityName"
              } ],
              "parameters" : [ {
                "_type" : "var",
                "name" : "x"
              } ]
            } ]
          }, {
            "_type" : "collection",
            "multiplicity" : {
              "lowerBound" : 10,
              "upperBound" : 10
            },
            "values" : [ {
              "_type" : "string",
              "multiplicity" : {
                "lowerBound" : 1,
                "upperBound" : 1
              },
              "values" : [ "Description" ]
            }, {
              "_type" : "string",
              "multiplicity" : {
                "lowerBound" : 1,
                "upperBound" : 1
              },
              "values" : [ "Finos Id" ]
            }, {
              "_type" : "string",
              "multiplicity" : {
                "lowerBound" : 1,
                "upperBound" : 1
              },
              "values" : [ "Is Deliverable" ]
            }, {
              "_type" : "string",
              "multiplicity" : {
                "lowerBound" : 1,
                "upperBound" : 1
              },
              "values" : [ "Iso Code" ]
            }, {
              "_type" : "string",
              "multiplicity" : {
                "lowerBound" : 1,
                "upperBound" : 1
              },
              "values" : [ "Is Off Shore" ]
            }, {
              "_type" : "string",
              "multiplicity" : {
                "lowerBound" : 1,
                "upperBound" : 1
              },
              "values" : [ "Numeric Iso Code" ]
            }, {
              "_type" : "string",
              "multiplicity" : {
                "lowerBound" : 1,
                "upperBound" : 1
              },
              "values" : [ "Status" ]
            }, {
              "_type" : "string",
              "multiplicity" : {
                "lowerBound" : 1,
                "upperBound" : 1
              },
              "values" : [ "Type" ]
            }, {
              "_type" : "string",
              "multiplicity" : {
                "lowerBound" : 1,
                "upperBound" : 1
              },
              "values" : [ "Issuing Authority/Issuing Authority Type" ]
            }, {
              "_type" : "string",
              "multiplicity" : {
                "lowerBound" : 1,
                "upperBound" : 1
              },
              "values" : [ "Issuing Authority/Issuing Authority Name" ]
            } ]
          } ]
        } ],
        "parameters" : [ ]
      }
    } ]
  }
}